{
  "compensation":{
    "label":"Compensation",
    "periods":{
      "Weekly":[
        {
          "label":"Wealth Payment",
          "value":10795.87,
          "ratio":20
        },
        {
          "label":"Protection Payment",
          "value":43183.48,
          "ratio":80
        }
      ],
      "Year-to-Date":[
        {
          "label":"Wealth Payment",
          "value":180795.87,
          "ratio":35
        },
        {
          "label":"Protection Payment",
          "value":423183.48,
          "ratio":65
        }
      ]
    }
  }
}
