<?xml version="1.0" encoding="utf-8"?>
<!-- Generator: Avocode 2.4.5 - http://avocode.com -->
<svg height="33" width="37" xmlns:xlink="http://www.w3.org/1999/xlink" xmlns="http://www.w3.org/2000/svg" viewBox="0 0 37 33">
    <path fill="#ffffff" fill-rule="evenodd" d="M 35 18 C 35 18 2 18 2 18 C 0.89 18 0 17.1 0 16 C 0 14.9 0.89 14 2 14 C 2 14 35 14 35 14 C 36.1 14 37 14.9 37 16 C 37 17.1 36.1 18 35 18 Z M 35 4 C 35 4 2 4 2 4 C 0.89 4 0 3.1 0 2 C 0 0.9 0.89 0 2 0 C 2 0 35 0 35 0 C 36.1 0 37 0.9 37 2 C 37 3.1 36.1 4 35 4 Z M 2 29 C 2 29 35 29 35 29 C 36.1 29 37 29.9 37 31 C 37 32.1 36.1 33 35 33 C 35 33 2 33 2 33 C 0.89 33 0 32.1 0 31 C 0 29.9 0.89 29 2 29 Z" />
</svg>