<?xml version="1.0" encoding="UTF-8"?>
<svg width="24px" height="24px" viewBox="0 0 24 24" version="1.1" xmlns="http://www.w3.org/2000/svg" xmlns:xlink="http://www.w3.org/1999/xlink">
    <!-- Generator: Sketch 50 (54983) - http://www.bohemiancoding.com/sketch -->
    <title>Icon/First/Grey</title>
    <desc>Created with Sketch.</desc>
    <defs></defs>
    <g id="Icon/First/Grey" stroke="none" stroke-width="1" fill="none" fill-rule="evenodd">
        <g id="Shape">
            <path d="M18.41,16.59 L13.82,12 L18.41,7.41 L17,6 L11,12 L17,18 L18.41,16.59 Z M6,6 L8,6 L8,18 L6,18 L6,6 Z" fill="#A9ABAE" fill-rule="nonzero"></path>
            <polygon points="24 24 0 24 0 0 24 0"></polygon>
        </g>
    </g>
</svg>