<?xml version="1.0" encoding="utf-8"?>
<!-- Generator: Avocode 2.4.5 - http://avocode.com -->
<svg height="27" width="46" xmlns:xlink="http://www.w3.org/1999/xlink" xmlns="http://www.w3.org/2000/svg" viewBox="0 0 46 27">
    <path fill="#757575" opacity="0.5" fill-rule="evenodd" d="M 38.63 26.08 C 38.35 23.62 36.83 20.8 31.78 19.52 C 31.93 19.26 32.01 18.93 32.01 18.5 C 32 17.4 31.67 16.39 31.42 15.35 C 31.39 15.25 31.4 15.04 31.24 15.09 C 30.84 15.2 30.69 14.63 30.62 14.3 C 30.51 13.82 30.45 13.32 30.44 12.82 C 30.43 12.63 30.55 12.31 30.69 12.25 C 31.14 12.06 31.06 12.81 30.98 11.39 C 30.93 10.67 30.86 9.93 30.99 9.24 C 31.17 8.32 31.6 7.44 32.39 6.92 C 33.21 6.37 33.68 5.95 35.14 5.95 C 36.59 5.95 37.06 6.37 37.88 6.92 C 38.67 7.44 39.1 8.32 39.28 9.24 C 39.41 9.93 39.34 10.67 39.29 11.39 C 39.21 12.81 39.13 12.06 39.59 12.25 C 39.73 12.31 39.84 12.63 39.84 12.82 C 39.82 13.32 39.77 13.82 39.65 14.3 C 39.58 14.63 39.43 15.2 39.04 15.09 C 38.87 15.04 38.88 15.25 38.86 15.35 C 38.6 16.39 38.27 17.4 38.27 18.5 C 38.26 19.54 38.71 19.96 39.55 20.48 C 40.04 20.78 40.48 20.98 40.95 21.23 C 41.17 21.35 46 21.9 46 26.08 C 46 26.08 38.63 26.08 38.63 26.08 Z M 28.23 12.25 C 28 12.18 28.01 12.46 27.98 12.6 C 27.64 13.99 27.2 15.35 27.19 16.83 C 27.18 18.21 27.78 18.78 28.92 19.49 C 29.57 19.89 30.16 20.15 30.79 20.48 C 31.09 20.64 37.56 21.39 37.56 26.99 C 37.56 26.99 8.43 26.99 8.43 26.99 C 8.43 21.32 14.9 20.64 15.2 20.48 C 15.82 20.15 16.42 19.89 17.07 19.49 C 18.2 18.78 18.8 18.21 18.8 16.83 C 18.79 15.36 18.35 13.99 18 12.6 C 17.97 12.46 17.99 12.18 17.76 12.25 C 17.23 12.41 17.04 11.64 16.94 11.19 C 16.79 10.55 16.71 9.87 16.69 9.21 C 16.68 8.95 16.84 8.53 17.03 8.45 C 17.64 8.19 17.53 9.2 17.42 7.29 C 17.36 6.33 17.26 5.33 17.44 4.4 C 17.68 3.17 18.25 2 19.31 1.3 C 20.41 0.56 21.04 0 22.99 0 C 24.95 0 25.58 0.56 26.68 1.3 C 27.73 2 28.31 3.17 28.55 4.4 C 28.72 5.33 28.63 6.33 28.57 7.29 C 28.45 9.2 28.35 8.19 28.96 8.45 C 29.15 8.53 29.31 8.95 29.3 9.21 C 29.27 9.87 29.2 10.55 29.05 11.19 C 28.95 11.64 28.75 12.41 28.23 12.25 Z M 14.75 15.09 C 14.58 15.04 14.6 15.25 14.57 15.35 C 14.31 16.39 13.99 17.4 13.98 18.5 C 13.98 18.93 14.05 19.25 14.2 19.52 C 9.15 20.76 7.63 23.6 7.36 26.08 C 7.36 26.08 -0.01 26.08 -0.01 26.08 C -0.01 21.85 4.81 21.35 5.04 21.23 C 5.5 20.98 5.95 20.78 6.43 20.48 C 7.28 19.96 7.73 19.54 7.72 18.5 C 7.72 17.4 7.39 16.39 7.13 15.35 C 7.11 15.25 7.12 15.04 6.95 15.09 C 6.56 15.2 6.41 14.63 6.33 14.3 C 6.22 13.82 6.17 13.32 6.15 12.82 C 6.14 12.63 6.26 12.31 6.4 12.25 C 6.86 12.06 6.78 12.81 6.69 11.39 C 6.65 10.67 6.58 9.93 6.71 9.24 C 6.88 8.32 7.32 7.44 8.1 6.92 C 8.92 6.37 9.39 5.95 10.85 5.95 C 12.31 5.95 12.78 6.37 13.6 6.92 C 14.38 7.44 14.82 8.32 14.99 9.24 C 15.12 9.93 15.05 10.67 15.01 11.39 C 14.92 12.81 14.85 12.06 15.3 12.25 C 15.44 12.31 15.56 12.63 15.55 12.82 C 15.54 13.32 15.48 13.82 15.37 14.3 C 15.29 14.63 15.15 15.2 14.75 15.09 Z" />
</svg>