{
  "configVersion": 1,
  "index": "/oh-my-dash/index.html",
  "assetGroups": [
    {
      "name": "app",
      "installMode": "prefetch",
      "updateMode": "prefetch",
      "urls": [
        "/oh-my-dash/favicon.ico",
        "/oh-my-dash/index.html",
        "/oh-my-dash/main.3b0bc90671d560b75452.js",
        "/oh-my-dash/polyfills.cf535d2993b5def59ab4.js",
        "/oh-my-dash/runtime.6afe30102d8fe7337431.js",
        "/oh-my-dash/styles.ff14e77b72d32ab9be02.css"
      ],
      "patterns": []
    },
    {
      "name": "assets",
      "installMode": "lazy",
      "updateMode": "prefetch",
      "urls": [
        "/oh-my-dash/assets/icons/icon-128x128.png",
        "/oh-my-dash/assets/icons/icon-144x144.png",
        "/oh-my-dash/assets/icons/icon-152x152.png",
        "/oh-my-dash/assets/icons/icon-192x192.png",
        "/oh-my-dash/assets/icons/icon-384x384.png",
        "/oh-my-dash/assets/icons/icon-512x512.png",
        "/oh-my-dash/assets/icons/icon-72x72.png",
        "/oh-my-dash/assets/icons/icon-96x96.png"
      ],
      "patterns": []
    }
  ],
  "dataGroups": [],
  "hashTable": {
    "/oh-my-dash/assets/icons/icon-128x128.png": "dae3b6ed49bdaf4327b92531d4b5b4a5d30c7532",
    "/oh-my-dash/assets/icons/icon-144x144.png": "b0bd89982e08f9bd2b642928f5391915b74799a7",
    "/oh-my-dash/assets/icons/icon-152x152.png": "7479a9477815dfd9668d60f8b3b2fba709b91310",
    "/oh-my-dash/assets/icons/icon-192x192.png": "1abd80d431a237a853ce38147d8c63752f10933b",
    "/oh-my-dash/assets/icons/icon-384x384.png": "329749cd6393768d3131ed6304c136b1ca05f2fd",
    "/oh-my-dash/assets/icons/icon-512x512.png": "559d9c4318b45a1f2b10596bbb4c960fe521dbcc",
    "/oh-my-dash/assets/icons/icon-72x72.png": "c457e56089a36952cd67156f9996bc4ce54a5ed9",
    "/oh-my-dash/assets/icons/icon-96x96.png": "3914125a4b445bf111c5627875fc190f560daa41",
    "/oh-my-dash/favicon.ico": "84161b857f5c547e3699ddfbffc6d8d737542e01",
    "/oh-my-dash/index.html": "1b463f94561321b0b569f8cee34ccd41d7ecff67",
    "/oh-my-dash/main.3b0bc90671d560b75452.js": "e9e2313c4139f864ea3a0a51ceff03d1bc595490",
    "/oh-my-dash/polyfills.cf535d2993b5def59ab4.js": "b7e2a904d991459f495b427233e93871eeb45c6b",
    "/oh-my-dash/runtime.6afe30102d8fe7337431.js": "078e320cc6fdaf355836c3b1c52b059cdd33fc7e",
    "/oh-my-dash/styles.ff14e77b72d32ab9be02.css": "ec6e0f4478b88e67754701068cca13e2acfc2c48"
  },
  "navigationUrls": [
    {
      "positive": true,
      "regex": "^\\/.*$"
    },
    {
      "positive": false,
      "regex": "^\\/(?:.+\\/)?[^\\/]*\\.[^\\/]*$"
    },
    {
      "positive": false,
      "regex": "^\\/(?:.+\\/)?[^\\/]*__[^\\/]*$"
    },
    {
      "positive": false,
      "regex": "^\\/(?:.+\\/)?[^\\/]*__[^\\/]*\\/.*$"
    }
  ]
}